datapath/simulation/qsim/FLF.msim.vcd
$comment
	File created using the following command:
		vcd file FLF.msim.vcd -direction
$end
$date
	Mon Aug 25 11:08:53 2025
$end
$version
	ModelSim Version 10.1d
$end
$timescale
	1ps
$end
$scope module top_level_vlg_vec_tst $end
$var reg 1 ! clock $end
$var reg 1 " reset $end
$var wire 1 # DataOut [7] $end
$var wire 1 $ DataOut [6] $end
$var wire 1 % DataOut [5] $end
$var wire 1 & DataOut [4] $end
$var wire 1 ' DataOut [3] $end
$var wire 1 ( DataOut [2] $end
$var wire 1 ) DataOut [1] $end
$var wire 1 * DataOut [0] $end
$var wire 1 + R0 [7] $end
$var wire 1 , R0 [6] $end
$var wire 1 - R0 [5] $end
$var wire 1 . R0 [4] $end
$var wire 1 / R0 [3] $end
$var wire 1 0 R0 [2] $end
$var wire 1 1 R0 [1] $end
$var wire 1 2 R0 [0] $end
$var wire 1 3 R1 [7] $end
$var wire 1 4 R1 [6] $end
$var wire 1 5 R1 [5] $end
$var wire 1 6 R1 [4] $end
$var wire 1 7 R1 [3] $end
$var wire 1 8 R1 [2] $end
$var wire 1 9 R1 [1] $end
$var wire 1 : R1 [0] $end
$var wire 1 ; R2 [7] $end
$var wire 1 < R2 [6] $end
$var wire 1 = R2 [5] $end
$var wire 1 > R2 [4] $end
$var wire 1 ? R2 [3] $end
$var wire 1 @ R2 [2] $end
$var wire 1 A R2 [1] $end
$var wire 1 B R2 [0] $end
$var wire 1 C R3 [7] $end
$var wire 1 D R3 [6] $end
$var wire 1 E R3 [5] $end
$var wire 1 F R3 [4] $end
$var wire 1 G R3 [3] $end
$var wire 1 H R3 [2] $end
$var wire 1 I R3 [1] $end
$var wire 1 J R3 [0] $end
$var wire 1 K R4 [7] $end
$var wire 1 L R4 [6] $end
$var wire 1 M R4 [5] $end
$var wire 1 N R4 [4] $end
$var wire 1 O R4 [3] $end
$var wire 1 P R4 [2] $end
$var wire 1 Q R4 [1] $end
$var wire 1 R R4 [0] $end
$var wire 1 S R5 [7] $end
$var wire 1 T R5 [6] $end
$var wire 1 U R5 [5] $end
$var wire 1 V R5 [4] $end
$var wire 1 W R5 [3] $end
$var wire 1 X R5 [2] $end
$var wire 1 Y R5 [1] $end
$var wire 1 Z R5 [0] $end
$var wire 1 [ R6 [7] $end
$var wire 1 \ R6 [6] $end
$var wire 1 ] R6 [5] $end
$var wire 1 ^ R6 [4] $end
$var wire 1 _ R6 [3] $end
$var wire 1 ` R6 [2] $end
$var wire 1 a R6 [1] $end
$var wire 1 b R6 [0] $end
$var wire 1 c R7 [7] $end
$var wire 1 d R7 [6] $end
$var wire 1 e R7 [5] $end
$var wire 1 f R7 [4] $end
$var wire 1 g R7 [3] $end
$var wire 1 h R7 [2] $end
$var wire 1 i R7 [1] $end
$var wire 1 j R7 [0] $end
$var wire 1 k s [2] $end
$var wire 1 l s [1] $end
$var wire 1 m s [0] $end
$var wire 1 n sampler $end
$scope module i1 $end
$var wire 1 o gnd $end
$var wire 1 p vcc $end
$var wire 1 q unknown $end
$var tri1 1 r devclrn $end
$var tri1 1 s devpor $end
$var tri1 1 t devoe $end
$var wire 1 u clock~combout $end
$var wire 1 v clock~clkctrl_outclk $end
$var wire 1 w Processor|R_5|q_temp[0]~feeder_combout $end
$var wire 1 x reset~combout $end
$var wire 1 y reset~clkctrl_outclk $end
$var wire 1 z Control_Unit|proximo_estado.S2_177~combout $end
$var wire 1 { Control_Unit|estado_atual.S2~regout $end
$var wire 1 | Control_Unit|proximo_estado.S3_169~combout $end
$var wire 1 } Control_Unit|estado_atual.S3~regout $end
$var wire 1 ~ Control_Unit|estado_atual.S3~clkctrl_outclk $end
$var wire 1 !! Control_Unit|proximo_estado~0_combout $end
$var wire 1 "! Control_Unit|proximo_estado.S1_185~combout $end
$var wire 1 #! Control_Unit|estado_atual.S1~regout $end
$var wire 1 $! Processor|Mx8|Mux7~0_combout $end
$var wire 1 %! Processor|Mx12|q[0]~10_combout $end
$var wire 1 &! Processor|Mx4|q[0]~9_combout $end
$var wire 1 '! Control_Unit|estado_atual.S0~feeder_combout $end
$var wire 1 (! Control_Unit|estado_atual.S0~regout $end
$var wire 1 )! Control_Unit|WideOr0~combout $end
$var wire 1 *! Processor|Mx12|q[1]~2_combout $end
$var wire 1 +! Processor|Mx8|Mux6~0_combout $end
$var wire 1 ,! Processor|Mx9|Mux6~0_combout $end
$var wire 1 -! Processor|instance_ULA|F1|sum~0_combout $end
$var wire 1 .! Processor|Mx4|q[1]~2_combout $end
$var wire 1 /! Processor|Mx9|Mux7~0_combout $end
$var wire 1 0! Processor|instance_ULA|F1|carry~0_combout $end
$var wire 1 1! Processor|Mx12|q[2]~3_combout $end
$var wire 1 2! Processor|R_5|q_temp[2]~feeder_combout $end
$var wire 1 3! Processor|Mx8|Mux5~0_combout $end
$var wire 1 4! Processor|Mx4|q[2]~3_combout $end
$var wire 1 5! Processor|Mx8|Mux4~0_combout $end
$var wire 1 6! Processor|instance_ULA|F2|carry~0_combout $end
$var wire 1 7! Processor|Mx12|q[3]~4_combout $end
$var wire 1 8! Processor|Mx4|q[3]~4_combout $end
$var wire 1 9! Processor|instance_ULA|F3|carry~0_combout $end
$var wire 1 :! Processor|Mx12|q[4]~5_combout $end
$var wire 1 ;! Processor|Mx4|q[4]~5_combout $end
$var wire 1 <! Processor|Mx8|Mux3~0_combout $end
$var wire 1 =! Processor|instance_ULA|F4|carry~0_combout $end
$var wire 1 >! Processor|Mx12|q[5]~6_combout $end
$var wire 1 ?! Processor|Mx8|Mux2~0_combout $end
$var wire 1 @! Processor|Mx4|q[5]~6_combout $end
$var wire 1 A! Processor|instance_ULA|F5|carry~0_combout $end
$var wire 1 B! Processor|Mx12|q[6]~7_combout $end
$var wire 1 C! Processor|Mx8|Mux1~0_combout $end
$var wire 1 D! Processor|Mx4|q[6]~7_combout $end
$var wire 1 E! Processor|Mx12|q[7]~8_combout $end
$var wire 1 F! Processor|Mx12|q[7]~9_combout $end
$var wire 1 G! Processor|Mx8|Mux0~0_combout $end
$var wire 1 H! Processor|instance_ULA|F6|carry~0_combout $end
$var wire 1 I! Processor|Mx4|q[7]~8_combout $end
$var wire 1 J! Control_Unit|s [2] $end
$var wire 1 K! Control_Unit|s [1] $end
$var wire 1 L! Control_Unit|s [0] $end
$var wire 1 M! Processor|R_4|q_temp [7] $end
$var wire 1 N! Processor|R_4|q_temp [6] $end
$var wire 1 O! Processor|R_4|q_temp [5] $end
$var wire 1 P! Processor|R_4|q_temp [4] $end
$var wire 1 Q! Processor|R_4|q_temp [3] $end
$var wire 1 R! Processor|R_4|q_temp [2] $end
$var wire 1 S! Processor|R_4|q_temp [1] $end
$var wire 1 T! Processor|R_4|q_temp [0] $end
$var wire 1 U! Processor|R_3|q_temp [7] $end
$var wire 1 V! Processor|R_3|q_temp [6] $end
$var wire 1 W! Processor|R_3|q_temp [5] $end
$var wire 1 X! Processor|R_3|q_temp [4] $end
$var wire 1 Y! Processor|R_3|q_temp [3] $end
$var wire 1 Z! Processor|R_3|q_temp [2] $end
$var wire 1 [! Processor|R_3|q_temp [1] $end
$var wire 1 \! Processor|R_3|q_temp [0] $end
$var wire 1 ]! Processor|R_5|q_temp [7] $end
$var wire 1 ^! Processor|R_5|q_temp [6] $end
$var wire 1 _! Processor|R_5|q_temp [5] $end
$var wire 1 `! Processor|R_5|q_temp [4] $end
$var wire 1 a! Processor|R_5|q_temp [3] $end
$var wire 1 b! Processor|R_5|q_temp [2] $end
$var wire 1 c! Processor|R_5|q_temp [1] $end
$var wire 1 d! Processor|R_5|q_temp [0] $end
$upscope $end
$upscope $end
$enddefinitions $end
#0
$dumpvars
0!
0"
x*
x)
x(
x'
x&
x%
x$
x#
02
01
00
0/
0.
0-
0,
0+
0:
09
08
07
06
05
04
03
0B
0A
0@
0?
0>
0=
0<
0;
xJ
xI
xH
xG
xF
xE
xD
xC
xR
xQ
xP
xO
xN
xM
xL
xK
xZ
xY
xX
xW
xV
xU
xT
xS
0b
0a
0`
0_
0^
0]
0\
0[
0j
0i
0h
0g
0f
0e
0d
0c
xm
xl
0k
xn
0o
1p
xq
1r
1s
1t
0u
xv
xw
0x
xy
xz
x{
x|
x}
x~
x!!
x"!
x#!
x$!
x%!
x&!
1'!
x(!
x)!
x*!
x+!
x,!
x-!
x.!
x/!
x0!
x1!
x2!
x3!
x4!
x5!
x6!
x7!
x8!
x9!
x:!
x;!
x<!
x=!
x>!
x?!
x@!
xA!
xB!
xC!
xD!
xE!
xF!
xG!
xH!
xI!
zL!
xK!
zJ!
xT!
xS!
xR!
xQ!
xP!
xO!
xN!
xM!
x\!
x[!
xZ!
xY!
xX!
xW!
xV!
xU!
xd!
xc!
xb!
xa!
x`!
x_!
x^!
x]!
$end
#113
0y
#118
0v
#218
0[!
0{
0}
0#!
0d!
0\!
0(!
0T!
0c!
0S!
0Z!
0b!
0R!
0Y!
0Q!
0X!
0P!
0`!
0W!
0_!
0O!
0V!
0^!
0N!
0U!
0]!
0M!
0a!
#541
0/!
0,!
#670
1)!
#797
0!!
#860
03!
#863
0C!
#867
0?!
#869
0<!
#959
0$!
#1072
00!
#1103
0.!
#1134
0G!
#1145
05!
#1168
0+!
#1372
0%!
#1411
1&!
#1412
04!
#1746
06!
#1759
0E!
#1760
0H!
#1762
0B!
#1807
0A!
#1818
0=!
#1849
0-!
#1911
0K!
#1962
0*!
#1990
01!
#1992
0~
#2015
09!
#2020
07!
#2164
0w
#2265
0;!
#2355
0>!
#2386
02!
#2402
08!
#2432
0D!
#2434
0I!
#2439
0@!
#2593
0:!
#2850
0F!
#3512
0|
#3513
0z
#3559
0S
#3561
0C
#3562
0E
#3571
0U
#3573
0H
#3589
0J
#3631
1"!
#3684
0Q
#3694
0)
#3723
0R
0*
#3820
0Y
#3853
0%
#3855
0P
#3860
0O
#3864
0I
#3865
0(
#3873
0M
#3878
0W
#3880
0'
#3886
0K
0#
#3888
0N
#3891
0G
#3897
0D
#3908
0F
#3910
0Z
#3913
0X
#3918
0&
#3922
0V
#3923
0L
0$
#4092
0T
#4538
0m
#5278
0l
#15000
1!
0n
#15999
1u
#16117
1v
#17914
1#!
1(!
1T!
#18366
0)!
#18379
1!!
#18654
1z
#18655
1$!
#18774
0"!
#19068
1%!
#19860
1w
#21419
1R
1*
#22234
1m
#30000
0!
1n
#30999
0u
#31117
0v
#45000
1!
0n
#45999
1u
#46117
1v
#47914
1{
0#!
#47918
1d!
#48654
0z
#48671
1)!
#48673
1|
#49104
1K!
#51610
1Z
#52471
1l
#52539
0m
#60000
0!
1n
#60999
0u
#61117
0v
#75000
1!
0n
#75999
1u
#76117
1v
#77914
0{
1}
#78493
0!!
#78671
0)!
#78673
0|
#78888
1"!
#79104
0K!
#79607
1K!
#79688
1~
#82539
1m
#90000
0!
1n
#90999
0u
#91117
0v
#105000
1!
0n
#105999
1u
#106117
1v
#107914
0}
1#!
#107920
1\!
#108379
1!!
#109607
0K!
#109688
0~
#111209
1z
#111291
1J
#111327
0"!
#112974
0l
#120000
0!
1n
#120999
0u
#121117
0v
#135000
1!
0n
#135999
1u
#136117
1v
#137914
1{
0#!
#138654
0z
#138671
1)!
#138673
1|
#138857
1/!
#139104
1K!
#139107
0&!
#139759
1-!
#140113
0%!
#140480
1.!
#140481
1*!
#140905
0w
#142471
1l
#142539
0m
#150000
0!
1n
#150999
0u
#151117
0v
#165000
1!
0n
#165999
1u
#166117
1v
#167914
0{
1}
0T!
1S!
#168493
0!!
#168671
0)!
#168673
0|
0*!
#168799
0.!
#168857
0/!
#168888
1"!
#169104
0K!
#169107
1&!
#169607
1K!
#169688
1~
#169759
0-!
#170113
1%!
#170905
1w
#171380
1Q
#171390
1)
#171419
0R
0*
#172539
1m
#180000
0!
1n
#180999
0u
#181117
0v
#195000
1!
0n
#195999
1u
#196117
1v
#197914
0}
1#!
#198379
1!!
#198596
0$!
1+!
#199007
1-!
#199009
0%!
#199390
1*!
#199607
0K!
#199688
0~
#199801
0w
#201209
1z
#201327
0"!
#202974
0l
#210000
0!
1n
#210999
0u
#211117
0v
#225000
1!
0n
#225999
1u
#226117
1v
#227914
1{
0#!
#227918
0d!
1c!
#228654
0z
#228671
1)!
#228673
1|
#228799
1.!
#228857
1/!
#229104
1K!
#230113
1%!
#230905
1w
#231520
1Y
#231610
0Z
#232471
1l
#232539
0m
#240000
0!
1n
#240999
0u
#241117
0v
#255000
1!
0n
#255999
1u
#256117
1v
#257914
0{
1}
1T!
#258493
0!!
#258671
0)!
#258673
0|
#258799
0.!
#258857
0/!
#258888
1"!
#259104
0K!
#259607
1K!
#259688
1~
#260113
0%!
#260905
0w
#261419
1R
1*
#262539
1m
#270000
0!
1n
#270999
0u
#271117
0v
#285000
1!
0n
#285999
1u
#286117
1v
#287914
0}
1#!
#287920
1[!
0\!
#288379
1!!
#288596
1$!
#289009
1%!
#289607
0K!
#289688
0~
#289801
1w
#291209
1z
#291291
0J
#291327
0"!
#291566
1I
#292974
0l
#300000
0!
1n
#300999
0u
#301117
0v
#315000
1!
0n
#315999
1u
#316117
1v
#317914
1{
0#!
#317918
1d!
#318654
0z
#318671
1)!
#318673
1|
#318799
1.!
#318863
1,!
#319104
1K!
#319394
10!
#319806
0-!
#320312
11!
#320511
14!
#320527
0.!
#320528
0*!
#320708
12!
#321610
1Z
#322471
1l
#322539
0m
#330000
0!
1n
#330999
0u
#331117
0v
#345000
1!
0n
#345999
1u
#346117
1v
#347914
0{
1}
0S!
1R!
#348493
0!!
#348671
0)!
#348673
0|
1*!
#348863
0,!
#348888
1"!
#349104
0K!
#349108
04!
#349394
00!
#349607
1K!
#349688
1~
#349806
1-!
#349939
01!
#350335
02!
#351380
0Q
#351390
0)
#351551
1P
#351561
1(
#352539
1m
#360000
0!
1n
#360999
0u
#361117
0v
#375000
1!
0n
#375999
1u
#376117
1v
#377914
0}
1#!
#377920
1\!
#378379
1!!
#378596
0+!
#378905
13!
#379277
0-!
#379390
0*!
#379607
0K!
#379688
0~
#380013
11!
#380409
12!
#381209
1z
#381291
1J
#381327
0"!
#382974
0l
#390000
0!
1n
#390999
0u
#391117
0v
#405000
1!
0n
#405999
1u
#406117
1v
#407914
1{
0#!
#407918
0c!
1b!
#408654
0z
#408671
1)!
#408673
1|
#408857
1/!
#408863
1,!
#409104
1K!
#409107
0&!
#409108
14!
#409394
10!
#409802
16!
#410113
0%!
#410208
17!
#410312
01!
#410511
04!
#410514
18!
#410708
02!
#410905
0w
#411520
0Y
#411613
1X
#412471
1l
#412539
0m
#420000
0!
1n
#420999
0u
#421117
0v
#435000
1!
0n
#435999
1u
#436117
1v
#437914
0{
1}
0T!
0R!
#437920
1Q!
#438493
0!!
#438671
0)!
#438673
0|
#438857
0/!
#438863
0,!
#438888
1"!
#439104
0K!
#439107
1&!
#439163
07!
#439536
00!
#439607
1K!
#439688
1~
#439939
11!
#439944
06!
#440098
08!
#440113
1%!
#440335
12!
#440905
1w
#441419
0R
0*
#441551
0P
#441561
0(
#441562
1O
#441582
1'
#442539
1m
#450000
0!
1n
#450999
0u
#451117
0v
#465000
1!
0n
#465999
1u
#466117
1v
#467914
0}
1#!
#467920
0[!
1Z!
#468379
1!!
#468596
0$!
#468599
15!
#468905
03!
#469009
0%!
#469474
17!
#469607
0K!
#469688
0~
#469801
0w
#470013
01!
#470409
02!
#471209
1z
#471275
1H
#471327
0"!
#471566
0I
#472974
0l
#480000
0!
1n
#480999
0u
#481117
0v
#495000
1!
0n
#495999
1u
#496117
1v
#497914
1{
0#!
#497918
0d!
0b!
1a!
#498654
0z
#498671
1)!
#498673
1|
#498857
1/!
#499104
1K!
#499108
14!
#499939
11!
#500098
18!
#500113
1%!
#500335
12!
#500905
1w
#501578
1W
#501610
0Z
#501613
0X
#502471
1l
#502539
0m
#510000
0!
1n
#510999
0u
#511117
0v
#525000
1!
0n
#525999
1u
#526117
1v
#527914
0{
1}
1T!
1R!
#528493
0!!
#528671
0)!
#528673
0|
#528857
0/!
#528888
1"!
#529104
0K!
#529108
04!
#529607
1K!
#529688
1~
#529939
01!
#530098
08!
#530113
0%!
#530335
02!
#530905
0w
#531419
1R
1*
#531551
1P
#531561
1(
#532539
1m
#540000
0!
1n
#540999
0u
#541117
0v
#555000
1!
0n
#555999
1u
#556117
1v
#557914
0}
1#!
#557920
0\!
0Z!
1Y!
#558379
1!!
#558596
1$!
#558905
13!
#559009
1%!
#559607
0K!
#559688
0~
#559801
1w
#560013
11!
#560409
12!
#561209
1z
#561275
0H
#561291
0J
#561327
0"!
#561593
1G
#562974
0l
#570000
0!
1n
#570999
0u
#571117
0v
#585000
1!
0n
#585999
1u
#586117
1v
#587914
1{
0#!
#587918
1d!
1b!
#588654
0z
#588671
1)!
#588673
1|
#589104
1K!
#589108
14!
#589163
07!
#589168
19!
#589961
1;!
#589973
1:!
#591610
1Z
#591613
1X
#592471
1l
#592539
0m
#600000
0!
1n
#600999
0u
#601117
0v
#615000
1!
0n
#615999
1u
#616117
1v
#617914
0{
1}
#617920
0Q!
1P!
#618493
0!!
#618671
0)!
#618673
0|
#618888
1"!
#619104
0K!
#619108
04!
#619163
17!
#619168
09!
#619578
0;!
#619607
1K!
#619688
1~
#619940
0:!
#621562
0O
#621582
0'
#621590
1N
#621620
1&
#622539
1m
#630000
0!
1n
#630999
0u
#631117
0v
#645000
1!
0n
#645999
1u
#646117
1v
#647914
0}
1#!
#647920
1\!
1Z!
#648379
1!!
#648599
05!
#648902
1<!
#649474
07!
#649607
0K!
#649688
0~
#650626
1:!
#651209
1z
#651275
1H
#651291
1J
#651327
0"!
#652974
0l
#660000
0!
1n
#660999
0u
#661117
0v
#675000
1!
0n
#675999
1u
#676117
1v
#677914
1{
0#!
#677918
1`!
0a!
#678654
0z
#678671
1)!
#678673
1|
#678857
1/!
#679104
1K!
#679107
0&!
#679161
16!
#679163
17!
#679567
07!
#679570
19!
#679759
1-!
#679939
01!
#679977
1=!
#680113
0%!
#680335
02!
#680375
0:!
#680397
1@!
#680480
1.!
#680481
1*!
#680905
0w
#680961
1>!
#681578
0W
#681622
1V
#682471
1l
#682539
0m
#690000
0!
1n
#690999
0u
#691117
0v
#705000
1!
0n
#705999
1u
#706117
1v
#707914
0{
1}
0T!
1S!
0R!
#707920
0P!
1O!
#708493
0!!
#708671
0)!
#708673
0|
0*!
#708799
0.!
#708857
0/!
#708888
1"!
#709104
0K!
#709107
1&!
#709161
06!
#709168
09!
#709575
0=!
#709578
1;!
#709607
1K!
#709688
1~
#709759
0-!
#709939
11!
#709940
1:!
#709961
0;!
#710051
0>!
#710113
1%!
#710135
0@!
#710335
12!
#710905
1w
#711380
1Q
#711390
1)
#711419
0R
0*
#711551
0P
#711555
1%
#711561
0(
#711575
1M
#711590
0N
#711620
0&
#712539
1m
#720000
0!
1n
#720999
0u
#721117
0v
#735000
1!
0n
#735999
1u
#736117
1v
#737914
0}
1#!
#737918
1X!
#737920
0Y!
#738379
1!!
#738596
0$!
1+!
#738902
0<!
#738904
1?!
#738905
03!
#739007
1-!
#739009
0%!
#739390
1*!
#739607
0K!
#739688
0~
#739801
0w
#739806
1>!
#740013
01!
#740409
02!
#740626
0:!
#741209
1z
#741327
0"!
#741593
0G
#741608
1F
#742974
0l
#750000
0!
1n
#750999
0u
#751117
0v
#765000
1!
0n
#765999
1u
#766117
1v
#767914
1{
0#!
#767918
0d!
1c!
0b!
0`!
1_!
#768654
0z
#768671
1)!
#768673
1|
#768799
1.!
#768857
1/!
#769104
1K!
#769108
14!
#769939
11!
#769940
1:!
#769961
1;!
#770113
1%!
#770135
1@!
#770335
12!
#770905
1w
#771271
1U
#771520
1Y
#771610
0Z
#771613
0X
#771622
0V
#772471
1l
#772539
0m
#780000
0!
1n
#780999
0u
#781117
0v
#795000
1!
0n
#795999
1u
#796117
1v
#797914
0{
1}
1T!
1R!
#797920
1P!
#798493
0!!
#798671
0)!
#798673
0|
#798799
0.!
#798857
0/!
#798888
1"!
#799104
0K!
#799108
04!
#799607
1K!
#799688
1~
#799939
01!
#799940
0:!
#799961
0;!
#800113
0%!
#800135
0@!
#800335
02!
#800905
0w
#801419
1R
1*
#801551
1P
#801561
1(
#801590
1N
#801620
1&
#802539
1m
#810000
0!
1n
#810999
0u
#811117
0v
#825000
1!
0n
#825999
1u
#826117
1v
#827914
0}
1#!
#827918
0X!
1W!
#827920
1[!
0\!
0Z!
#828379
1!!
#828596
1$!
#828902
1<!
#828905
13!
#829009
1%!
#829607
0K!
#829688
0~
#829801
1w
#830013
11!
#830409
12!
#830626
1:!
#831209
1z
#831262
1E
#831275
0H
#831291
0J
#831327
0"!
#831566
1I
#831608
0F
#832974
0l
#840000
0!
1n
#840999
0u
#841117
0v
#855000
1!
0n
#855999
1u
#856117
1v
#857914
1{
0#!
#857918
1d!
1b!
1`!
#858654
0z
#858671
1)!
#858673
1|
#858799
1.!
#858863
1,!
#859104
1K!
#859108
14!
#859166
1A!
#859394
10!
#859585
1B!
#859802
16!
#859806
0-!
#859961
1;!
#860051
0>!
#860128
1D!
#860208
17!
#860312
01!
#860511
04!
#860514
18!
#860527
0.!
#860528
0*!
#860708
02!
#861610
1Z
#861613
1X
#861622
1V
#862471
1l
#862539
0m
#870000
0!
1n
#870999
0u
#871117
0v
#885000
1!
0n
#885999
1u
#886117
1v
#887914
0{
1}
0S!
0R!
#887920
1Q!
0O!
1N!
#888493
0!!
#888671
0)!
#888673
0|
1*!
#888863
0,!
#888888
1"!
#889104
0K!
#889163
07!
#889165
0B!
#889166
0A!
#889394
00!
#889584
0D!
#889607
1K!
#889688
1~
#889802
06!
#889806
1-!
#889939
11!
#889961
0;!
#890051
1>!
#890098
08!
#890335
12!
#891380
0Q
#891390
0)
#891551
0P
#891555
0%
#891561
0(
#891562
1O
#891575
0M
#891582
1'
#891625
1L
1$
#892539
1m
#900000
0!
1n
#900999
0u
#901117
0v
#915000
1!
0n
#915999
1u
#916117
1v
#917914
0}
1#!
#917918
1X!
#917920
1\!
1Z!
#918379
1!!
#918596
0+!
#918599
15!
#918904
0?!
1C!
#918905
03!
#919277
0-!
#919390
0*!
#919474
17!
#919607
0K!
#919688
0~
#919803
1B!
#919806
0>!
#920013
01!
#920409
02!
#921209
1z
#921275
1H
#921291
1J
#921327
0"!
#921608
1F
#922974
0l
#930000
0!
1n
#930999
0u
#931117
0v
#945000
1!
0n
#945999
1u
#946117
1v
#947914
1{
0#!
#947918
0c!
0b!
0_!
1^!
1a!
#948654
0z
#948671
1)!
#948673
1|
#948857
1/!
#948863
1,!
#949104
1K!
#949107
0&!
#949108
14!
#949165
1=!
#949394
10!
#949582
1A!
#949802
16!
#949939
11!
#949940
0:!
#950000
1E!
#950001
0B!
1H!
#950113
0%!
#950208
07!
#950211
19!
#950312
01!
#950335
12!
#950511
04!
#950527
1I!
#950550
1F!
#950621
1;!
#950708
02!
#950905
0w
#951016
1:!
#951271
0U
#951520
0Y
#951578
1W
#951613
0X
#951792
1T
#952471
1l
#952539
0m
#960000
0!
1n
#960999
0u
#961117
0v
#975000
1!
0n
#975999
1u
#976117
1v
#977914
0{
1}
0T!
#977920
0Q!
0N!
1M!
#978493
0!!
#978671
0)!
#978673
0|
#978857
0/!
#978863
0,!
#978888
1"!
#979104
0K!
#979107
1&!
#979161
06!
#979163
17!
#979165
1B!
#979166
0A!
#979536
00!
#979570
09!
#979584
1D!
0E!
#979585
0H!
#979607
1K!
#979688
1~
#979933
0F!
#979961
0;!
#979977
0=!
#980113
1%!
#980128
0D!
#980130
0I!
#980905
1w
#981419
0R
0*
#981562
0O
#981582
0'
#981588
1K
1#
#981625
0L
0$
#982539
1m
#990000
0!
1n
#990999
0u
